STA 210 - Fall 2023 - Logistic regression
…
Sleep7

1: yes

0: no

data(YouthRisk2009) #from Stat2Data package
sleep <- YouthRisk2009 |>
  as_tibble() |>
  filter(!is.na(Age), !is.na(Sleep7))
sleep |>
  relocate(Age, Sleep7)

# A tibble: 446 × 6
     Age Sleep7 Sleep           SmokeLife SmokeDaily MarijuaEver
   <int>  <int> <fct>           <fct>     <fct>            <int>
 1    16      1 8 hours         Yes       Yes                  1
 2    17      0 5 hours         Yes       Yes                  1
 3    18      0 5 hours         Yes       Yes                  1
 4    17      1 7 hours         Yes       No                   1
 5    15      0 4 or less hours No        No                   0
 6    17      0 6 hours         No        No                   0
 7    17      1 7 hours         No        No                   0
 8    16      1 8 hours         Yes       No                   0
 9    16      1 8 hours         No        No                   0
10    18      0 4 or less hours Yes       Yes                  1
# ℹ 436 more rows
…
Risk of coronary heart disease

This dataset is from an ongoing cardiovascular study on residents of the town of Framingham, Massachusetts. We want to use age to predict if a randomly selected adult is high risk of having coronary heart disease in the next 10 years.

high_risk:

1: High risk of having heart disease in next 10 years

0: Not high risk of having heart disease in next 10 years

age: Age at exam time (in years)

Data: heart_disease

# A tibble: 4,240 × 2
     age high_risk
   <dbl> <fct>    
 1    39 0        
 2    46 0        
 3    48 0        
 4    61 1        
 5    46 0        
 6    43 0        
 7    63 1        
 8    45 0        
 9    52 0        
10    43 0        
# ℹ 4,230 more rows
…
age
0.075
0.005
14.178
0

\[\log\Big(\frac{\hat{\pi}}{1-\hat{\pi}}\Big) = -5.561 + 0.075 \times \text{age}\] where \(\hat{\pi}\) is the predicted probability of being high risk of having heart disease in the next 10 years

Predicted log odds

augment(heart_disease_fit$fit) |> select(.fitted, .resid)

# A tibble: 4,240 × 2
   .fitted .resid
     <dbl>  <dbl>
 1  -2.65  -0.370
 2  -2.13  -0.475
 3  -1.98  -0.509
 4  -1.01   1.62 
 5  -2.13  -0.475
 6  -2.35  -0.427
 7  -0.858  1.56 
 8  -2.20  -0.458
 9  -1.68  -0.585
10  -2.35  -0.427
# ℹ 4,230 more rows

. . .

For observation 1

\[\text{predicted odds} = \hat{\omega} = \frac{\hat{\pi}}{1-\hat{\pi}} = \exp\{-2.650\} = 0.071\]

Predicted probabilities

predict(heart_disease_fit, new_data = heart_disease, type = "prob")

# A tibble: 4,240 × 2
   .pred_0 .pred_1
     <dbl>   <dbl>
 1   0.934  0.0660
 2   0.894  0.106 
 3   0.878  0.122 
 4   0.733  0.267 
 5   0.894  0.106 
 6   0.913  0.0870
 7   0.702  0.298 
 8   0.900  0.0996
 9   0.843  0.157 
10   0.913  0.0870
# ℹ 4,230 more rows

. . .

For observation 1

\[\text{predicted probability} = \hat{\pi} = \frac{\exp\{-2.650\}}{1 + \exp\{-2.650\}} = 0.066\]

Predicted classes

predict(heart_disease_fit, new_data = heart_disease, type = "class")

# A tibble: 4,240 × 1
   .pred_class
   <fct>      
 1 0          
 2 0          
 3 0          
 4 0          
 5 0          
 6 0          
 7 0          
 8 0          
 9 0          
10 0          
# ℹ 4,230 more rows

Default prediction

For a logistic regression, the default prediction is the class.

predict(heart_disease_fit, new_data = heart_disease)

# A tibble: 4,240 × 1
   .pred_class
   <fct>      
 1 0          
 2 0          
 3 0          
 4 0          
 5 0          
 6 0          
 7 0          
 8 0          
 9 0          
10 0          
# ℹ 4,230 more rows
…
