MAT 212 - Fall 2024 - Feature engineering
…
Loading required package: colorspace

library(gghighlight)

# set default theme and larger font size for ggplot2
ggplot2::theme_set(ggplot2::theme_bw(base_size = 16))

Types of predictors

Data: Peer-to-peer lender

Today’s data is a sample of 50 loans made through a peer-to-peer lending club. The data is in the loan50 data frame in the openintro R package.

# A tibble: 50 × 4
   annual_income debt_to_income verified_income interest_rate
           <dbl>          <dbl> <fct>                   <dbl>
 1         59000         0.558  Not Verified            10.9 
 2         60000         1.31   Not Verified             9.92
 3         75000         1.06   Verified                26.3 
 4         75000         0.574  Not Verified             9.92
 5        254000         0.238  Not Verified             9.43
 6         67000         1.08   Source Verified          9.92
 7         28800         0.0997 Source Verified         17.1 
 8         80000         0.351  Not Verified             6.08
 9         34000         0.698  Not Verified             7.97
10         80000         0.167  Source Verified         12.6 
# ℹ 40 more rows
…
office_ratings <- read_csv("data/office_ratings.csv")

Rows: 188 Columns: 6
── Column specification ────────────────────────────────────────────────────────
Delimiter: ","
chr  (1): title
dbl  (4): season, episode, imdb_rating, total_votes
date (1): air_date

ℹ Use `spec()` to retrieve the full column specification for this data.
ℹ Specify the column types or set `show_col_types = FALSE` to quiet this message.

office_ratings

# A tibble: 188 × 6
   season episode title             imdb_rating total_votes air_date  
    <dbl>   <dbl> <chr>                   <dbl>       <dbl> <date>    
 1      1       1 Pilot                     7.6        3706 2005-03-24
 2      1       2 Diversity Day             8.3        3566 2005-03-29
 3      1       3 Health Care               7.9        2983 2005-04-05
 4      1       4 The Alliance              8.1        2886 2005-04-12
 5      1       5 Basketball                8.4        3179 2005-04-19
 6      1       6 Hot Girl                  7.8        2852 2005-04-26
 7      2       1 The Dundies               8.7        3213 2005-09-20
 8      2       2 Sexual Harassment         8.2        2736 2005-09-27
 9      2       3 Office Olympics           8.4        2742 2005-10-04
10      2       4 The Fire                  8.4        2713 2005-10-11
# ℹ 178 more rows
…
. . .

Step 3: Save testing data

office_test  <- testing(office_split)
dim(office_test)

[1] 47  6

Training data

office_train

# A tibble: 141 × 6
   season episode title               imdb_rating total_votes air_date  
    <dbl>   <dbl> <chr>                     <dbl>       <dbl> <date>    
 1      8      18 Last Day in Florida         7.8        1429 2012-03-08
 2      9      14 Vandalism                   7.6        1402 2013-01-31
 3      2       8 Performance Review          8.2        2416 2005-11-15
 4      9       5 Here Comes Treble           7.1        1515 2012-10-25
 5      3      22 Beach Games                 9.1        2783 2007-05-10
 6      7       1 Nepotism                    8.4        1897 2010-09-23
 7      3      15 Phyllis' Wedding            8.3        2283 2007-02-08
 8      9      21 Livin' the Dream            8.9        2041 2013-05-02
 9      9      18 Promos                      8          1445 2013-04-04
10      8      12 Pool Party                  8          1612 2012-01-19
# ℹ 131 more rows
…
Variables that go into the model and how they are represented are just as critical to success of the model

Feature engineering allows us to get creative with our predictors in an effort to make them more useful for our model (to increase its predictive performance and improve interpretability)

Feature engineering with dplyr

office_train |>
  mutate(
    season = as_factor(season),
    month = lubridate::month(air_date),
    wday = lubridate::wday(air_date)
  )

# A tibble: 141 × 8
  season episode title            imdb_rating total_votes air_date   month  wday
  <fct>    <dbl> <chr>                  <dbl>       <dbl> <date>     <dbl> <dbl>
1 8           18 Last Day in Flo…         7.8        1429 2012-03-08     3     5
2 9           14 Vandalism                7.6        1402 2013-01-31     1     5
3 2            8 Performance Rev…         8.2        2416 2005-11-15    11     3
4 9            5 Here Comes Treb…         7.1        1515 2012-10-25    10     5
5 3           22 Beach Games              9.1        2783 2007-05-10     5     5
6 7            1 Nepotism                 8.4        1897 2010-09-23     9     5
# ℹ 135 more rows
…
