STA 210 - Fall 2023 - Logistic Regression: Prediction + classification
…
Make predictions

Make predictions for test data

email_pred <- predict(email_fit, email_test, type = "prob") |> 
  bind_cols(email_test) 
email_pred

# A tibble: 981 × 23
   .pred_0  .pred_1 spam  to_multiple from     cc sent_email time               
     <dbl>    <dbl> <fct> <fct>       <fct> <int> <fct>      <dttm>             
 1   0.921 0.0786   0     0           1         0 0          2012-01-01 01:16:41
 2   0.961 0.0391   0     0           1         0 0          2012-01-01 05:00:01
 3   0.999 0.000988 0     0           1         1 1          2012-01-01 14:38:32
 4   0.999 0.000591 0     0           1         1 1          2012-01-01 18:40:14
 5   0.991 0.00878  0     0           1         0 0          2012-01-02 00:42:16
 6   0.910 0.0902   0     0           1         0 0          2012-01-01 21:05:45
 7   1.00  0.000108 0     1           1         3 0          2012-01-02 08:41:11
 8   0.975 0.0248   0     0           1         0 0          2012-01-02 20:07:17
 9   0.952 0.0477   0     0           1         0 0          2012-01-02 23:31:03
10   0.992 0.00819  0     1           1         0 0          2012-01-03 08:36:16
# ℹ 971 more rows
# ℹ 15 more variables: image <dbl>, attach <dbl>, dollar <dbl>, winner <fct>,
#   inherit <dbl>, viagra <dbl>, password <dbl>, num_char <dbl>,
#   line_breaks <int>, format <fct>, re_subj <fct>, exclaim_subj <dbl>,
#   urgent_subj <fct>, exclaim_mess <dbl>, number <fct>
…
ROC curve, under the hood

email_pred |>
  roc_curve(
    truth = spam,
    .pred_1,
    event_level = "second"
  )

# A tibble: 978 × 3
    .threshold specificity sensitivity
         <dbl>       <dbl>       <dbl>
 1 -Inf            0                 1
 2    3.36e-10     0                 1
 3    2.27e- 9     0.00226           1
 4    8.69e- 7     0.00339           1
 5    9.89e- 7     0.00452           1
 6    1.43e- 6     0.00565           1
 7    9.16e- 6     0.00678           1
 8    1.03e- 5     0.00791           1
 9    2.58e- 5     0.00904           1
10    3.35e- 5     0.0102            1
# ℹ 968 more rows
…
